<?xml version="1.0" encoding="UTF-8" standalone="no" ?>
<!DOCTYPE svg PUBLIC "-//W3C//DTD SVG 1.1//EN" "http://www.w3.org/Graphics/SVG/1.1/DTD/svg11.dtd">
<svg xmlns="http://www.w3.org/2000/svg" xmlns:xlink="http://www.w3.org/1999/xlink" version="1.1" width="400" height="400" viewBox="0 0 400 400" xml:space="preserve">
<desc>Created with Fabric.js 3.6.2</desc>
<defs>
</defs>
<g transform="matrix(8.33 0 0 8.33 200 200)" id="_Path_"  >
<path style="stroke: #0D4880 ; stroke-width: 1; stroke-dasharray: none; stroke-linecap: round; stroke-dashoffset: 0; stroke-linejoin: round; stroke-miterlimit: 4; fill: none; fill-rule: nonzero; opacity: 1;"  transform=" translate(-12, -12)" d="M 20.5 5.5 V 22 A 1.5 1.5 0 0 1 19 23.5 H 5 A 1.5 1.5 0 0 1 3.5 22 V 2 A 1.5 1.5 0 0 1 5 0.5 H 15.5 Z" stroke-linecap="round" />
</g>
<g transform="matrix(8.33 0 0 8.33 250 125)" id="_Path_2"  >
<path style="stroke: #0D4880 ; stroke-width: 1; stroke-dasharray: none; stroke-linecap: round; stroke-dashoffset: 0; stroke-linejoin: round; stroke-miterlimit: 4; fill: none; fill-rule: nonzero; opacity: 1;"  transform=" translate(-18, -3)" d="M 15.5 0.5 V 4 A 1.5 1.5 0 0 0 17 5.5 h 3.5" stroke-linecap="round" />
</g>
<g transform="matrix(8.33 0 0 8.33 200 195.83)" id="_Path_3"  >
<line style="stroke: #0D4880 ; stroke-width: 1; stroke-dasharray: none; stroke-linecap: round; stroke-dashoffset: 0; stroke-linejoin: round; stroke-miterlimit: 4; fill: none; fill-rule: nonzero; opacity: 1;"  x1="-4.5" y1="0" x2="4.5" y2="0" />
</g>
<g transform="matrix(8.33 0 0 8.33 200 212.5)" id="_Path_4"  >
<line style="stroke: #0D4880 ; stroke-width: 1; stroke-dasharray: none; stroke-linecap: round; stroke-dashoffset: 0; stroke-linejoin: round; stroke-miterlimit: 4; fill: none; fill-rule: nonzero; opacity: 1;"  x1="-4.5" y1="0" x2="4.5" y2="0" />
</g>
<g transform="matrix(8.33 0 0 8.33 200 229.17)" id="_Path_5"  >
<line style="stroke: #0D4880 ; stroke-width: 1; stroke-dasharray: none; stroke-linecap: round; stroke-dashoffset: 0; stroke-linejoin: round; stroke-miterlimit: 4; fill: none; fill-rule: nonzero; opacity: 1;"  x1="-4.5" y1="0" x2="4.5" y2="0" />
</g>
<g transform="matrix(8.33 0 0 8.33 183.33 245.83)" id="_Path_6"  >
<line style="stroke: #0D4880 ; stroke-width: 1; stroke-dasharray: none; stroke-linecap: round; stroke-dashoffset: 0; stroke-linejoin: round; stroke-miterlimit: 4; fill: none; fill-rule: nonzero; opacity: 1;"  x1="-2.5" y1="0" x2="2.5" y2="0" />
</g>
</svg>